p8105_hw4_abd2150
…
rest_inspec %>% 
  filter(grade != is.na(grade)) %>% 
  separate(grade_date, into = c("grade_year", "grade_month_day"), sep = "\\-") %>%
  mutate(
    grade_month_day=str_replace(grade_month_day, "\\-","")
  )

## # A tibble: 195,647 x 19
##    action boro  building  camis critical_flag cuisine_descrip~ dba  
##    <chr>  <chr> <chr>     <int> <chr>         <chr>            <chr>
##  1 Viola~ MANH~ 1271     5.00e7 Critical      American         THE ~
##  2 Viola~ MANH~ 37       4.12e7 Not Critical  Korean           SHIL~
##  3 Viola~ MANH~ 53       4.04e7 Not Critical  Korean           HAN ~
##  4 Viola~ MANH~ 287      4.16e7 Not Critical  American         BRGR 
##  5 Viola~ MANH~ 800      4.11e7 Not Critical  Pizza            WALD~
##  6 Viola~ MANH~ 121      5.00e7 Not Critical  CafÃ©/Coffee/Tea LUNA 
##  7 Viola~ MANH~ 124      4.10e7 Critical      American         JOHN~
##  8 Viola~ MANH~ 138      4.11e7 Critical      American         AROM~
##  9 Viola~ MANH~ 839      5.00e7 Not Critical  American         L'AM~
## 10 Viola~ MANH~ 35       4.13e7 Critical      Korean           MADA~
## # ... with 195,637 more rows, and 12 more variables:
## #   inspection_date <dttm>, inspection_type <chr>, phone <chr>,
## #   record_date <dttm>, score <int>, street <chr>, violation_code <chr>,
## #   violation_description <chr>, zipcode <int>, grade <chr>,
## #   grade_year <chr>, grade_month_day <chr>
